…
Registered S3 methods overwritten by 'broom':
  method            from  
  tidy.glht         jtools
  tidy.summary.glht jtools
Registered S3 methods overwritten by 'broom':
  method            from  
  tidy.glht         jtools
  tidy.summary.glht jtools
Registered S3 methods overwritten by 'broom':
  method            from  
  tidy.glht         jtools
  tidy.summary.glht jtools
> plan(sequential)
> res.pp
# A tibble: 64 × 11
  policy                data     pid   covars ref   formula ncovars fit   summ     glance   pred    
  <chr+lbl>             <list>   <chr> <list> <chr> <glue>    <dbl> <lis> <list>   <list>   <list>  
1 admin [Training peri… <tibble> pid   <dbl>  G0    att ~ …       0 <glm> <tibble> <tibble> <tibble>
2 admin [Training peri… <tibble> pid   <dbl>  G0 (… att ~ …       0 <glm> <tibble> <tibble> <tibble>
3 admin [Training peri… <tibble> pid   <chr>  G0    att ~ …       6 <glm> <tibble> <tibble> <tibble>
4 admin [Training peri… <tibble> pid   <chr>  G0 (… att ~ …       6 <glm> <tibble> <tibble> <tibble>
5 admin [Training peri… <tibble> psid  <dbl>  G0    att ~ …       0 <glm> <tibble> <tibble> <tibble>
6 admin [Training peri… <tibble> psid  <dbl>  G0 (… att ~ …       0 <glm> <tibble> <tibble> <tibble>
# ℹ 58 more rows
…
+             pid.cat = factor(pid.cat, levels=c("Democratic voter (not aware)",
+                                                "Democratic voter (aware)",
+                                                "Republican voter (not aware)",
+                                                "Republican voter (aware)"
+                                       ))
+         )
+     %>% left_join(., df %>%
+                      select(policy, policy.group) %>%
+                      distinct(., .keep_all=TRUE) , by=c('policy')) 
+     %>% mutate(policy= factor(policy,
+                               LABELS.VALUES[['policy.short']],
+                               names(LABELS.VALUES[['policy.short']])))
+ )
> tab
# A tibble: 96 × 8
# Groups:   policy, pid.cat [32]
  policy             pid.cat                      treat.group       n     p aware x     policy.group
  <fct>              <fct>                        <fct>         <int> <dbl> <dbl> <fct> <chr+lbl>   
1 Training for staff Democratic voter (not aware) Control          87 0.776     0 Cont… 2 [Low-sali…
2 Training for staff Democratic voter (aware)     Control (awa…    89 0.658     1 Cont… 2 [Low-sali…
3 Training for staff Democratic voter (not aware) Dem. Support…    95 0.846     0 Dem.… 2 [Low-sali…
4 Training for staff Democratic voter (aware)     Dem. Support…    92 0.765     0 Dem.… 2 [Low-sali…
5 Training for staff Democratic voter (not aware) Rep. Support…   106 0.358     0 Rep.… 2 [Low-sali…
6 Training for staff Democratic voter (aware)     Rep. Support…    93 0.492     0 Rep.… 2 [Low-sali…
# ℹ 90 more rows
…
15 none     <tibble [402 × 10]> mc2   <dbl [1]> mc2~aware+ 1        1 No    <lm>        203 <tibble>
16 none     <tibble [402 × 10]> mc2   <chr [7]> mc2~aware+ e…       7 Yes   <lm>        203 <tibble>
> 
> ## *** DONE Manipulation checks (MC stacked)
> 
> tab = (
+     df 
+     %>% distinct(rid, .keep_all=TRUE) 
+     %>% select(rid, aware, mc.prior, mc1, mc2, CONTROLS, pid.cat)
+     %>% filter(mc.prior!='none') 
+     %>% pivot_longer(c('mc1', 'mc2'), names_to='mc', values_to="mc.value") 
+     %>% mutate(mc = relevel(factor(mc), ref='mc2'))
+ )
> tab
# A tibble: 792 × 13
  rid    aware   mc.prior educ.std age.std inchh.std white female   nfc   nfa pid.cat mc    mc.value
  <chr>  <dbl+l> <chr>       <dbl>   <dbl>     <dbl> <dbl>  <dbl> <dbl> <dbl> <chr>   <fct> <dbl+lb>
1 R_5QW… 0 [Not… mc1        -0.129   0.652     1.12      1      0 0.575 0.611 Democr… mc1   3 [Neit…
2 R_5QW… 0 [Not… mc1        -0.129   0.652     1.12      1      0 0.575 0.611 Democr… mc2   3 [Neit…
3 R_2ri… 0 [Not… mc2        -0.129   0.959    -0.558     1      1 0.6   0.75  Republ… mc1   4 [Agre…
4 R_2ri… 0 [Not… mc2        -0.129   0.959    -0.558     1      1 0.6   0.75  Republ… mc2   4 [Agre…
5 R_13m… 0 [Not… mc2        -0.129   1.27     -0.139     1      1 0.525 0.667 Democr… mc1   4 [Agre…
6 R_13m… 0 [Not… mc2        -0.129   1.27     -0.139     1      1 0.525 0.667 Democr… mc2   4 [Agre…
# ℹ 786 more rows
…
Registered S3 methods overwritten by 'broom':
  method            from  
  tidy.glht         jtools
  tidy.summary.glht jtools
Registered S3 methods overwritten by 'broom':
  method            from  
  tidy.glht         jtools
  tidy.summary.glht jtools
Registered S3 methods overwritten by 'broom':
  method            from  
  tidy.glht         jtools
  tidy.summary.glht jtools
> plan(sequential)
> res.pp.no.mc
# A tibble: 64 × 11
  policy                data     pid   covars ref   formula ncovars fit   summ     glance   pred    
  <chr+lbl>             <list>   <chr> <list> <chr> <glue>    <dbl> <lis> <list>   <list>   <list>  
1 admin [Training peri… <tibble> pid   <dbl>  G0    att ~ …       0 <glm> <tibble> <tibble> <tibble>
2 admin [Training peri… <tibble> pid   <dbl>  G0 (… att ~ …       0 <glm> <tibble> <tibble> <tibble>
3 admin [Training peri… <tibble> pid   <chr>  G0    att ~ …       6 <glm> <tibble> <tibble> <tibble>
4 admin [Training peri… <tibble> pid   <chr>  G0 (… att ~ …       6 <glm> <tibble> <tibble> <tibble>
5 admin [Training peri… <tibble> psid  <dbl>  G0    att ~ …       0 <glm> <tibble> <tibble> <tibble>
6 admin [Training peri… <tibble> psid  <dbl>  G0 (… att ~ …       0 <glm> <tibble> <tibble> <tibble>
# ℹ 58 more rows
…
5     5 Native Hawaiian or Pacific Islander            1            0.13            0.21
6     6 Other (specify)                               26            3.26            8.7 
Saving tab-f4...done!
> 
> ## ** DONE Table F5
> 
> table = 'tab-f5'
> ## 
> tab = (
+     df   
+     %>% distinct(rid, .keep_all=TRUE) 
+     %>% select(CONTROLS, policy, pid, psid, att) 
+ ) 
> tab = tab %>% descriptive.statistics()
# A tibble: 798 × 11
  `Education (std)` `Age (std)` `Income (std)` `Race (white)` `Gender (female)` `Need for cognition`
              <dbl>       <dbl>          <dbl>          <dbl>             <dbl>                <dbl>
1            -0.129     -1.19            1.12               1                 1                0.625
2            -1.06      -0.578           0.280              1                 0                0.625
3             0.806      0.0368         -0.976              0                 0                0.675
4            -0.129      0.652           1.12               1                 0                0.575
5            -0.129      0.959          -0.558              1                 1                0.6  
6            -0.129      1.27           -0.139              1                 1                0.525
# ℹ 792 more rows
> tab
# A tibble: 10 × 9
  Variable               N `Missing (%)`  Mean Std.Dev   Min Median   Max   IQR
  <fct>              <dbl>         <dbl> <dbl>   <dbl> <dbl>  <dbl> <dbl> <dbl>
1 Education (std)      798             0 0.072   1.03  -2    -0.129  1.74 1.87 
2 Age (std)            798             0 0.156   1.05  -1.50  0.344  2.50 1.84 
3 Income (std)         798             0 0.162   1.01  -1.81  0.28   1.95 1.68 
4 Race (white)         798             0 0.737   0.441  0     1      1    1    
5 Gender (female)      798             0 0.619   0.486  0     1      1    1    
6 Need for cognition   798             0 0.569   0.167  0.15  0.575  1    0.225
# ℹ 4 more rows
…
+                                       glue("{str_wrap(LABELS.VARS[['mc2']], width = 55)}\n(MC 2)"))
+                              ),
+             mc.prior.label = case_when(
+                 mc.prior=='either'            ~ 'Before or after (aggreagated)',
+                 mc.prior=='none'              ~ 'After (none asked before)',
+                 mc.prior=='mc1'    & y=='mc1' ~ 'Before',
+                 mc.prior=='mc2'    & y=='mc2' ~ 'Before',
+                 mc.prior=='mc2'    & y=='mc1' ~ 'After',
+                 mc.prior=='mc1'    & y=='mc2' ~ 'After',
+             )
+             )
+     %>% select(-data, -fit, -covars)
+ )
> tab
# A tibble: 16 × 17
  mc.prior y     f      ncovars adj       n effect group term  estimate std.error statistic conf.low
  <chr>    <chr> <glue>   <int> <chr> <int> <chr>  <chr> <chr>    <dbl>     <dbl>     <dbl>    <dbl>
1 either   mc1   mc1~a…       1 No      595 fixed  <NA>  aware  -0.0904    0.0812     -1.11   -0.249
2 either   mc1   mc1~a…       7 Yes     595 fixed  <NA>  aware  -0.106     0.0803     -1.32   -0.263
3 either   mc2   mc2~a…       1 No      599 fixed  <NA>  aware  -0.246     0.0777     -3.17   -0.399
4 either   mc2   mc2~a…       7 Yes     599 fixed  <NA>  aware  -0.249     0.0764     -3.26   -0.399
5 mc1      mc1   mc1~a…       1 No      198 <NA>   <NA>  aware  -0.220     0.147      -1.49   -0.510
6 mc1      mc1   mc1~a…       7 Yes     198 <NA>   <NA>  aware  -0.190     0.143      -1.33   -0.472
# ℹ 10 more rows
…
